Digest for HelloWorld/javacard/RefLocation.capx		[SHA-256: e04a1cdfcc60dfbc31308943137d1257a901f1ae09e9e60be5732a2ae0b23015]
Digest for HelloWorld/javacard/Directory.cap		[SHA-256: a303cee9985d57ae25644e7490e5abb873f8ba568bd96a75ff5b235c44373519]
Digest for HelloWorld/javacard/Method.capx		[SHA-256: 502d0ddd53aea194b32e4fdc2c6ff536477b0c58409b7ada7048a81c01537ba8]
Digest for HelloWorld/javacard/Debug.capx		[SHA-256: 79f1a357b353e123a0406209ae1ebd9cd7ae02d0bdd0699097c2b72bd3966c53]
Digest for HelloWorld/javacard/ConstantPool.cap		[SHA-256: ab7e403d871c927f2ee36f8d5c36887a91f5f0c9baeb37e378cd57ea629bbe08]
Digest for HelloWorld/javacard/Import.cap		[SHA-256: 17069de75944813647c938235868c5b19e064ba18beb737bd9e1210c79c26567]
Digest for HelloWorld/javacard/Class.cap		[SHA-256: c60c512a91c74c91350ef8a876dc75689845c3df6a90a6433a90ef789499cd9d]
Digest for HelloWorld/javacard/StaticField.cap		[SHA-256: 5863e9740af5fb905922380b2aa88309a16a285dd3412417ae8af941327901ee]
Digest for HelloWorld/javacard/Applet.cap		[SHA-256: 4e0bc264757c1eb1104fa056fb6a6b7152edb35033c88690e2bc21d27028ff05]
Digest for HelloWorld/javacard/Header.cap		[SHA-256: f24b9c98e5f9fd70f75098ca4eaf65fca467452d3aa3fc619ffb854e1b07b924]
Digest for HelloWorld/javacard/Descriptor.capx		[SHA-256: d0d409cfed4079a234d15ef7e9b86dce3797bc40e4ed62fd7a24a82264017f40]
Verification completed with 0 warnings and 0 errors.
